%YAML 1.1
%TAG !u! tag:unity3d.com,2011:
--- !u!114 &11400000
MonoBehaviour:
  m_ObjectHideFlags: 0
  m_CorrespondingSourceObject: {fileID: 0}
  m_PrefabInstance: {fileID: 0}
  m_PrefabAsset: {fileID: 0}
  m_GameObject: {fileID: 0}
  m_Enabled: 1
  m_EditorHideFlags: 0
  m_Script: {fileID: 11500000, guid: abe9b1b1a6bb6cc4181a53ad04986b6a, type: 3}
  m_Name: EnemyData
  m_EditorClassIdentifier: 
  m_EnemyData:
  - m_EnemyCode: 000000
    m_EnemyData:
      enemyName: "\uD5C8\uC218\uC544\uBE44"
      maxHP: 9999
      atk: 10
      def: 30
  - m_EnemyCode: 000001
    m_EnemyData:
      enemyName: "\uCD9C\uADFC"
      maxHP: 500
      atk: 10
      def: 30
